{
	"classes": [
		{
			"name": "Human",
			"effect": 4,
			"numberOfCards": 5,
			"description": "You're a Human! Add 4 to your strength!"

		},
		{
			"name": "Elf",
			"effect": 2,
			"numberOfCards": 5,
			"description": "You're an Elf, kinda like Legolas! Add 5 to your strength!"
		},
		{
			"name": "Wizard",
			"effect": 10,
			"numberOfCards": 5,
			"description": "You're a wizrard, Jerry! Add 10 to your strength!"
		}
	]
}