{
	"equipment": [
		{
			"name": "Fresh Heelys",
			"effect": 5,
			"goldAmount": 500,
			"numberOfCards": 10,
			"description": "Add 5 to your strength!"
		},
		{
			"name": "Silicone Sword",
			"effect": 15,
			"goldAmount": 500,
			"numberOfCards": 10,
			"description": "Add 15 to your strength!"
		},
		{
			"name": "Loose-fitting Helmet",
			"effect": 15,
			"goldAmount": 500,
			"numberOfCards": 10,
			"description": "Add 15 to your strength!"
		},
		{
			"name": "Sweater From Grandma",
			"effect": 15,
			"goldAmount": 500,
			"numberOfCards": 10,
			"description": "Add 15 to your strength!"
		},
		{
			"name": "Rough Hands",
			"effect": 10,
			"goldAmount": 500,
			"numberOfCards": 10,
			"description": "Add 10 to your strength!"

		},
		{
			"name": "Squad Up",
			"effect": 5,
			"goldAmount": 500,
			"numberOfCards": 10,
			"description": "Add 5 to your strength!"
		},
		{
			"name": "Surpirse Muscles",
			"effect": 10,
			"goldAmount": 500,
			"numberOfCards": 5,
			"description": "Add 10 to your strength!"
		},
		{
			"name": "Happy Birthday!",
			"effect": 7,
			"goldAmount": 500,
			"numberOfCards": 15,
			"description": "Add 7 to your strength!"
		}
	]
}